<?xml version="1.0" encoding="UTF-8"?>
<!DOCTYPE svg PUBLIC "-//W3C//DTD SVG 1.1//EN" "http://www.w3.org/Graphics/SVG/1.1/DTD/svg11.dtd">
<!-- Creator: CorelDRAW 2018 (64 Bit) -->
<svg xmlns="http://www.w3.org/2000/svg" xml:space="preserve" width="13px" height="16px" version="1.1" style="shape-rendering:geometricPrecision; text-rendering:geometricPrecision; image-rendering:optimizeQuality; fill-rule:evenodd; clip-rule:evenodd"
viewBox="0 0 0.104 0.13"
 xmlns:xlink="http://www.w3.org/1999/xlink">
 <defs>
  <style type="text/css">
   <![CDATA[
    .fil0 {fill:#D3D0D0;fill-rule:nonzero}
   ]]>
  </style>
 </defs>
 <g id="Conteúdo_x0020_de_x0020_símbolos">
  <metadata id="CorelCorpID_0Corel-Layer"/>
  <path class="fil0" d="M0.052 0.03c0.006,0 0.012,0.002 0.016,0.006l0 0c0.004,0.004 0.006,0.01 0.006,0.016 0,0.006 -0.002,0.012 -0.006,0.016l0 0c-0.004,0.004 -0.01,0.006 -0.016,0.006 -0.006,0 -0.012,-0.002 -0.016,-0.006l0 0c-0.004,-0.004 -0.006,-0.01 -0.006,-0.016 0,-0.006 0.002,-0.012 0.006,-0.016l0 0c0.004,-0.004 0.01,-0.006 0.016,-0.006zm0 -0.03c0.015,0 0.028,0.006 0.037,0.015 0.009,0.01 0.015,0.023 0.015,0.037 0,0.006 -0.006,0.018 -0.015,0.031l0 0c-0.012,0.018 -0.028,0.038 -0.034,0.044l-0.003 0.003 -0.003 -0.003c-0.006,-0.006 -0.022,-0.026 -0.034,-0.044l0 0c-0.008,-0.013 -0.015,-0.025 -0.015,-0.031 0,-0.014 0.006,-0.027 0.015,-0.037 0.01,-0.009 0.023,-0.015 0.037,-0.015zm0.031 0.021c-0.008,-0.008 -0.019,-0.013 -0.031,-0.013 -0.012,0 -0.023,0.005 -0.031,0.013 -0.008,0.008 -0.013,0.019 -0.013,0.031 0,0.004 0.006,0.015 0.014,0.026 0.01,0.015 0.023,0.032 0.03,0.04 0.007,-0.008 0.02,-0.025 0.03,-0.04 0.008,-0.011 0.014,-0.022 0.014,-0.026 0,-0.012 -0.005,-0.023 -0.013,-0.031zm-0.021 0.021c-0.003,-0.002 -0.006,-0.004 -0.01,-0.004 -0.004,0 -0.007,0.002 -0.01,0.004l0 0c-0.002,0.003 -0.004,0.006 -0.004,0.01 0,0.004 0.002,0.007 0.004,0.01l0 0c0.003,0.002 0.006,0.004 0.01,0.004 0.004,0 0.007,-0.002 0.01,-0.004l0 0c0.002,-0.003 0.004,-0.006 0.004,-0.01 0,-0.004 -0.002,-0.007 -0.004,-0.01l0 0z"/>
 </g>
</svg>
