<?xml version="1.0" encoding="UTF-8"?>
<!DOCTYPE svg PUBLIC "-//W3C//DTD SVG 1.1//EN" "http://www.w3.org/Graphics/SVG/1.1/DTD/svg11.dtd">
<!-- Creator: CorelDRAW 2018 (64 Bit) -->
<svg xmlns="http://www.w3.org/2000/svg" xml:space="preserve" width="695px" height="555px" version="1.1" style="shape-rendering:geometricPrecision; text-rendering:geometricPrecision; image-rendering:optimizeQuality; fill-rule:evenodd; clip-rule:evenodd"
viewBox="0 0 702.044 560.685"
 xmlns:xlink="http://www.w3.org/1999/xlink">
 <defs>
  <style type="text/css">
   <![CDATA[
    .fil0 {fill:gray}
   ]]>
  </style>
 </defs>
 <g id="Camada_x0020_1">
  <metadata id="CorelCorpID_0Corel-Layer"/>
  <path class="fil0" d="M109.569 493.223c2.788,9.535 33.691,65.356 41.774,65.883 7.926,0.519 15.807,1.091 23.695,1.569 9.762,0.593 9.228,-26.037 8.31,-32.301 -3.101,-21.186 -1.477,-10.413 -6.155,-31.675 -19.839,-1.159 -47.71,-2.318 -67.624,-3.476zm482.906 0c-2.788,9.535 -33.691,65.356 -41.774,65.883 -7.927,0.519 -15.807,1.091 -23.695,1.569 -9.762,0.593 -9.228,-26.037 -8.31,-32.301 3.101,-21.186 1.477,-10.413 6.155,-31.675 19.839,-1.159 47.71,-2.318 67.624,-3.476zm-241.453 -73.802c8.515,-0.07 11.805,-11.247 16.334,-24.603 18.529,-52.747 51.004,-97.811 90.999,-135.409 40.035,-37.635 88.527,-67.944 139.286,-91.318 5.802,-2.659 11.642,-5.385 17.518,-8.111 13.101,-6.133 29.348,-13.629 34.701,-20.988 2.089,-2.749 1.942,-3.322 4.155,-6.338 1.795,4.157 5.428,7.359 10.181,7.359 9.17,0 18.304,0 27.474,0 5.877,0 10.528,-4.703 10.37,-10.425 -0.289,-10.427 -0.585,-20.856 -0.899,-31.349 -0.171,-5.723 -5.277,-10.427 -11.266,-10.427 -11.23,0 -22.498,0 -33.764,0 -5.989,0 -11.756,4.908 -10.445,10.427 2.281,9.609 4.456,19.217 6.664,28.759 -1.123,1.431 -2.208,2.861 -3.332,4.225 -2.582,-2.726 -6.326,-4.701 -11.38,-5.52 -0.149,-1.226 -2.01,-4.053 -2.235,-5.346 -4.828,-0.205 -10.536,0.3 -15.473,0.049 -5.533,-0.283 -7.58,-4.758 -8.456,-9.354 -2.369,-12.437 -10.112,-37.792 -12.728,-55.131 5.765,0.274 11.529,0.546 17.257,0.75 3.855,-3.544 8.459,-16.831 -5.427,-20.921 -20.589,-32.37 -72.872,-29.286 -105.336,-32.476 -37.073,-3.643 -100.806,-3.137 -154.198,-3.274 -53.392,0.136 -117.124,-0.371 -154.197,3.274 -32.467,3.192 -84.748,0.106 -105.337,32.476 -13.886,4.09 -9.282,17.377 -5.428,20.921 5.729,-0.204 11.492,-0.476 17.258,-0.75 -2.616,17.339 -10.359,42.694 -12.728,55.131 -0.876,4.596 -2.923,9.071 -8.456,9.354 -4.937,0.251 -10.645,-0.254 -15.473,-0.049 -0.225,1.293 -2.086,4.12 -2.235,5.346 -5.054,0.819 -8.798,2.794 -11.38,5.52 -1.124,-1.364 -2.209,-2.794 -3.332,-4.225 2.208,-9.542 4.382,-19.15 6.664,-28.759 1.311,-5.519 -4.456,-10.427 -10.445,-10.427 -11.266,0 -22.534,0 -33.764,0 -5.989,0 -11.096,4.704 -11.267,10.427 -0.313,10.493 -0.609,20.922 -0.898,31.349 -0.158,5.722 4.492,10.425 10.37,10.425 9.17,0 18.304,0 27.474,0 4.753,0 8.386,-3.202 10.181,-7.359 2.213,3.016 2.066,3.589 4.155,6.338 5.353,7.359 21.6,14.855 34.701,20.988 5.876,2.726 11.716,5.452 17.518,8.111 50.759,23.374 99.251,53.683 139.286,91.318 39.995,37.598 72.47,82.662 90.998,135.409 4.53,13.356 7.82,24.534 16.335,24.603zm214.918 -367.504c8.847,0.807 17.385,6.601 19.577,14.483 4.033,14.494 3.887,19.08 6.172,39.299 0.906,8.037 -6.403,18.429 -14.749,19.187 -33.614,3.055 -67.308,4.153 -100.88,3.816 -33.574,-0.337 -65.558,-2.113 -99.02,-4.771 -8.492,-0.674 -18.929,-8.347 -18.979,-16.56 -0.104,-17.369 -0.491,-27.353 -0.785,-43.534 -0.118,-6.512 9.946,-14.897 17.069,-15.191 31.396,-1.303 61.325,-1.909 92.806,-1.5 31.482,0.409 67.692,1.933 98.789,4.771zm-214.918 444.912c-81.173,-2.743 -162.492,-3.871 -243.513,-11.512 -8.107,-0.764 -29.537,-7.955 -35.185,-20.921 -0.377,-0.868 -0.675,-1.771 -0.974,-2.657 6.101,2.998 19.617,7.826 47.316,11.244 27.511,3.394 69.212,5.452 132.585,2.93 2.883,-0.135 4.904,-2.861 4.491,-6.133 -0.411,-3.271 -3.106,-5.861 -6.026,-5.793 -79.656,3.135 -123.6,-0.152 -147.896,-4.089 -13.975,-2.263 -30.054,-8.212 -32.417,-10.698 0.301,-9.746 5.129,-18.469 15.535,-19.696 -15.234,-37.617 -27.593,-78.684 -31.368,-123.278 -3.752,-44.325 0.71,-92.204 4.603,-142.906 -4.828,-4.43 -8.01,-10.427 -9.02,-16.286 8.235,7.699 22.722,17.643 34.812,23.231 5.801,2.728 11.642,5.454 17.48,8.111 49.562,22.897 95.432,51.936 134.731,88.745 39.399,36.903 69.061,78.631 87.44,130.287 5.578,17.885 13.85,33.2 27.406,33.267 13.556,-0.067 21.828,-15.382 27.406,-33.267 18.379,-51.656 48.041,-93.384 87.44,-130.287 39.299,-36.809 85.169,-65.848 134.731,-88.745 5.838,-2.657 11.679,-5.383 17.48,-8.111 12.09,-5.588 26.577,-15.532 34.812,-23.231 -1.011,5.859 -4.192,11.856 -9.02,16.286 3.893,50.702 8.355,98.581 4.602,142.906 -3.774,44.594 -16.133,85.661 -31.367,123.278 10.406,1.227 15.234,9.95 15.535,19.696 -2.363,2.486 -18.442,8.435 -32.417,10.698 -24.296,3.937 -68.24,7.224 -147.896,4.089 -2.92,-0.068 -5.615,2.522 -6.026,5.793 -0.413,3.272 1.608,5.998 4.491,6.133 63.373,2.522 105.074,0.464 132.585,-2.93 27.699,-3.418 41.215,-8.246 47.316,-11.244 -0.299,0.886 -0.597,1.789 -0.974,2.657 -5.648,12.966 -27.078,20.157 -35.186,20.921 -81.02,7.641 -162.34,8.769 -243.512,11.512zm46.692 -11.512c16.507,0 31.403,-0.308 36.795,-0.886 1.606,-0.17 2.833,-2.932 2.921,-4.77 0.397,-8.245 -0.195,-16.498 -1.722,-24.397 -0.343,-1.778 -1.947,-3.484 -3.63,-3.679 -4.753,-0.553 -19.016,-0.887 -35.037,-1.023 -30.676,0 -61.366,-0.259 -92.038,0 -16.021,0.136 -30.284,0.47 -35.037,1.023 -1.683,0.195 -3.287,1.901 -3.631,3.679 -1.526,7.899 -2.118,16.152 -1.721,24.397 0.088,1.838 1.315,4.6 2.921,4.77 5.392,0.578 20.288,0.886 36.795,0.886 31.134,0 62.25,0 93.384,0zm174.997 -265.843c-9.787,0 -17.986,7.939 -18.117,17.65 -0.131,9.711 7.73,17.583 17.481,17.583 9.751,0 17.78,-7.872 17.93,-17.583 0.15,-9.711 -7.506,-17.65 -17.294,-17.65zm-35.673 56.631c-25.435,0 -46.417,20.036 -47.764,44.705 -1.348,24.668 16.826,44.704 41.362,44.704 24.537,0 47.353,-20.034 49.599,-44.704 2.246,-24.671 -17.762,-44.705 -43.197,-44.705zm-400.935 -224.188c-8.846,0.807 -17.384,6.601 -19.576,14.483 -4.033,14.494 -3.887,19.08 -6.172,39.299 -0.906,8.037 6.403,18.429 14.749,19.187 33.614,3.055 67.308,4.153 100.88,3.816 33.574,-0.337 65.558,-2.113 99.02,-4.771 8.492,-0.674 18.929,-8.347 18.978,-16.56 0.104,-17.369 0.492,-27.353 0.786,-43.534 0.118,-6.512 -9.946,-14.897 -17.069,-15.191 -31.396,-1.303 -61.325,-1.909 -92.806,-1.5 -31.482,0.409 -67.692,1.933 -98.79,4.771zm-6.77 167.557c9.787,0 17.986,7.939 18.117,17.65 0.131,9.711 -7.73,17.583 -17.481,17.583 -9.751,0 -17.78,-7.872 -17.93,-17.583 -0.15,-9.711 7.506,-17.65 17.294,-17.65zm35.673 56.631c25.435,0 46.417,20.036 47.764,44.705 1.348,24.668 -16.826,44.704 -41.363,44.704 -24.536,0 -47.352,-20.034 -49.598,-44.704 -2.246,-24.671 17.762,-44.705 43.197,-44.705z"/>
 </g>
</svg>
